^C:\USERS\KYLE\DROPBOX\PROJECT\TEST\BWAPI-LIB\SOURCE\BULLETSET.CPP
/c /I../BWAPI_include /I../Util/Source /I../BWAPI/Source /Zi /nologo /W4 /WX- /Od /Oy- /D NOMINMAX /D WIN32 /D _DEBUG /D _UNICODE /D UNICODE /Gm- /EHsc /RTC1 /MDd /GS /Gy /fp:precise /Za /Zc:wchar_t /Zc:forScope /GR- /Fo"DEBUG\\" /Fd"C:\USERS\KYLE\DROPBOX\PROJECT\TEST\DEBUG\BWAPID.PDB" /Gd /TP /wd4480 /analyze- C:\USERS\KYLE\DROPBOX\PROJECT\TEST\BWAPI-LIB\SOURCE\BULLETSET.CPP
^C:\USERS\KYLE\DROPBOX\PROJECT\TEST\BWAPI-LIB\SOURCE\BULLETTYPE.CPP
/c /I../BWAPI_include /I../Util/Source /I../BWAPI/Source /Zi /nologo /W4 /WX- /Od /Oy- /D NOMINMAX /D WIN32 /D _DEBUG /D _UNICODE /D UNICODE /Gm- /EHsc /RTC1 /MDd /GS /Gy /fp:precise /Za /Zc:wchar_t /Zc:forScope /GR- /Fo"DEBUG\\" /Fd"C:\USERS\KYLE\DROPBOX\PROJECT\TEST\DEBUG\BWAPID.PDB" /Gd /TP /wd4480 /analyze- C:\USERS\KYLE\DROPBOX\PROJECT\TEST\BWAPI-LIB\SOURCE\BULLETTYPE.CPP
^C:\USERS\KYLE\DROPBOX\PROJECT\TEST\BWAPI-LIB\SOURCE\COLOR.CPP
/c /I../BWAPI_include /I../Util/Source /I../BWAPI/Source /Zi /nologo /W4 /WX- /Od /Oy- /D NOMINMAX /D WIN32 /D _DEBUG /D _UNICODE /D UNICODE /Gm- /EHsc /RTC1 /MDd /GS /Gy /fp:precise /Za /Zc:wchar_t /Zc:forScope /GR- /Fo"DEBUG\\" /Fd"C:\USERS\KYLE\DROPBOX\PROJECT\TEST\DEBUG\BWAPID.PDB" /Gd /TP /wd4480 /analyze- C:\USERS\KYLE\DROPBOX\PROJECT\TEST\BWAPI-LIB\SOURCE\COLOR.CPP
^C:\USERS\KYLE\DROPBOX\PROJECT\TEST\BWAPI-LIB\SOURCE\DAMAGETYPE.CPP
/c /I../BWAPI_include /I../Util/Source /I../BWAPI/Source /Zi /nologo /W4 /WX- /Od /Oy- /D NOMINMAX /D WIN32 /D _DEBUG /D _UNICODE /D UNICODE /Gm- /EHsc /RTC1 /MDd /GS /Gy /fp:precise /Za /Zc:wchar_t /Zc:forScope /GR- /Fo"DEBUG\\" /Fd"C:\USERS\KYLE\DROPBOX\PROJECT\TEST\DEBUG\BWAPID.PDB" /Gd /TP /wd4480 /analyze- C:\USERS\KYLE\DROPBOX\PROJECT\TEST\BWAPI-LIB\SOURCE\DAMAGETYPE.CPP
^C:\USERS\KYLE\DROPBOX\PROJECT\TEST\BWAPI-LIB\SOURCE\ERROR.CPP
/c /I../BWAPI_include /I../Util/Source /I../BWAPI/Source /Zi /nologo /W4 /WX- /Od /Oy- /D NOMINMAX /D WIN32 /D _DEBUG /D _UNICODE /D UNICODE /Gm- /EHsc /RTC1 /MDd /GS /Gy /fp:precise /Za /Zc:wchar_t /Zc:forScope /GR- /Fo"DEBUG\\" /Fd"C:\USERS\KYLE\DROPBOX\PROJECT\TEST\DEBUG\BWAPID.PDB" /Gd /TP /wd4480 /analyze- C:\USERS\KYLE\DROPBOX\PROJECT\TEST\BWAPI-LIB\SOURCE\ERROR.CPP
^C:\USERS\KYLE\DROPBOX\PROJECT\TEST\BWAPI-LIB\SOURCE\EVENT.CPP
/c /I../BWAPI_include /I../Util/Source /I../BWAPI/Source /Zi /nologo /W4 /WX- /Od /Oy- /D NOMINMAX /D WIN32 /D _DEBUG /D _UNICODE /D UNICODE /Gm- /EHsc /RTC1 /MDd /GS /Gy /fp:precise /Za /Zc:wchar_t /Zc:forScope /GR- /Fo"DEBUG\\" /Fd"C:\USERS\KYLE\DROPBOX\PROJECT\TEST\DEBUG\BWAPID.PDB" /Gd /TP /wd4480 /analyze- C:\USERS\KYLE\DROPBOX\PROJECT\TEST\BWAPI-LIB\SOURCE\EVENT.CPP
^C:\USERS\KYLE\DROPBOX\PROJECT\TEST\BWAPI-LIB\SOURCE\EXPLOSIONTYPE.CPP
/c /I../BWAPI_include /I../Util/Source /I../BWAPI/Source /Zi /nologo /W4 /WX- /Od /Oy- /D NOMINMAX /D WIN32 /D _DEBUG /D _UNICODE /D UNICODE /Gm- /EHsc /RTC1 /MDd /GS /Gy /fp:precise /Za /Zc:wchar_t /Zc:forScope /GR- /Fo"DEBUG\\" /Fd"C:\USERS\KYLE\DROPBOX\PROJECT\TEST\DEBUG\BWAPID.PDB" /Gd /TP /wd4480 /analyze- C:\USERS\KYLE\DROPBOX\PROJECT\TEST\BWAPI-LIB\SOURCE\EXPLOSIONTYPE.CPP
^C:\USERS\KYLE\DROPBOX\PROJECT\TEST\BWAPI-LIB\SOURCE\FILTERS.CPP
/c /I../BWAPI_include /I../Util/Source /I../BWAPI/Source /Zi /nologo /W4 /WX- /Od /Oy- /D NOMINMAX /D WIN32 /D _DEBUG /D _UNICODE /D UNICODE /Gm- /EHsc /RTC1 /MDd /GS /Gy /fp:precise /Za /Zc:wchar_t /Zc:forScope /GR- /Fo"DEBUG\\" /Fd"C:\USERS\KYLE\DROPBOX\PROJECT\TEST\DEBUG\BWAPID.PDB" /Gd /TP /wd4480 /analyze- C:\USERS\KYLE\DROPBOX\PROJECT\TEST\BWAPI-LIB\SOURCE\FILTERS.CPP
^C:\USERS\KYLE\DROPBOX\PROJECT\TEST\BWAPI-LIB\SOURCE\FORCESET.CPP
/c /I../BWAPI_include /I../Util/Source /I../BWAPI/Source /Zi /nologo /W4 /WX- /Od /Oy- /D NOMINMAX /D WIN32 /D _DEBUG /D _UNICODE /D UNICODE /Gm- /EHsc /RTC1 /MDd /GS /Gy /fp:precise /Za /Zc:wchar_t /Zc:forScope /GR- /Fo"DEBUG\\" /Fd"C:\USERS\KYLE\DROPBOX\PROJECT\TEST\DEBUG\BWAPID.PDB" /Gd /TP /wd4480 /analyze- C:\USERS\KYLE\DROPBOX\PROJECT\TEST\BWAPI-LIB\SOURCE\FORCESET.CPP
^C:\USERS\KYLE\DROPBOX\PROJECT\TEST\BWAPI-LIB\SOURCE\GAME.CPP
/c /I../BWAPI_include /I../Util/Source /I../BWAPI/Source /Zi /nologo /W4 /WX- /Od /Oy- /D NOMINMAX /D WIN32 /D _DEBUG /D _UNICODE /D UNICODE /Gm- /EHsc /RTC1 /MDd /GS /Gy /fp:precise /Za /Zc:wchar_t /Zc:forScope /GR- /Fo"DEBUG\\" /Fd"C:\USERS\KYLE\DROPBOX\PROJECT\TEST\DEBUG\BWAPID.PDB" /Gd /TP /wd4480 /analyze- C:\USERS\KYLE\DROPBOX\PROJECT\TEST\BWAPI-LIB\SOURCE\GAME.CPP
^C:\USERS\KYLE\DROPBOX\PROJECT\TEST\BWAPI-LIB\SOURCE\GAMETYPE.CPP
/c /I../BWAPI_include /I../Util/Source /I../BWAPI/Source /Zi /nologo /W4 /WX- /Od /Oy- /D NOMINMAX /D WIN32 /D _DEBUG /D _UNICODE /D UNICODE /Gm- /EHsc /RTC1 /MDd /GS /Gy /fp:precise /Za /Zc:wchar_t /Zc:forScope /GR- /Fo"DEBUG\\" /Fd"C:\USERS\KYLE\DROPBOX\PROJECT\TEST\DEBUG\BWAPID.PDB" /Gd /TP /wd4480 /analyze- C:\USERS\KYLE\DROPBOX\PROJECT\TEST\BWAPI-LIB\SOURCE\GAMETYPE.CPP
^C:\USERS\KYLE\DROPBOX\PROJECT\TEST\BWAPI-LIB\SOURCE\ORDER.CPP
/c /I../BWAPI_include /I../Util/Source /I../BWAPI/Source /Zi /nologo /W4 /WX- /Od /Oy- /D NOMINMAX /D WIN32 /D _DEBUG /D _UNICODE /D UNICODE /Gm- /EHsc /RTC1 /MDd /GS /Gy /fp:precise /Za /Zc:wchar_t /Zc:forScope /GR- /Fo"DEBUG\\" /Fd"C:\USERS\KYLE\DROPBOX\PROJECT\TEST\DEBUG\BWAPID.PDB" /Gd /TP /wd4480 /analyze- C:\USERS\KYLE\DROPBOX\PROJECT\TEST\BWAPI-LIB\SOURCE\ORDER.CPP
^C:\USERS\KYLE\DROPBOX\PROJECT\TEST\BWAPI-LIB\SOURCE\PLAYER.CPP
/c /I../BWAPI_include /I../Util/Source /I../BWAPI/Source /Zi /nologo /W4 /WX- /Od /Oy- /D NOMINMAX /D WIN32 /D _DEBUG /D _UNICODE /D UNICODE /Gm- /EHsc /RTC1 /MDd /GS /Gy /fp:precise /Za /Zc:wchar_t /Zc:forScope /GR- /Fo"DEBUG\\" /Fd"C:\USERS\KYLE\DROPBOX\PROJECT\TEST\DEBUG\BWAPID.PDB" /Gd /TP /wd4480 /analyze- C:\USERS\KYLE\DROPBOX\PROJECT\TEST\BWAPI-LIB\SOURCE\PLAYER.CPP
^C:\USERS\KYLE\DROPBOX\PROJECT\TEST\BWAPI-LIB\SOURCE\PLAYERSET.CPP
/c /I../BWAPI_include /I../Util/Source /I../BWAPI/Source /Zi /nologo /W4 /WX- /Od /Oy- /D NOMINMAX /D WIN32 /D _DEBUG /D _UNICODE /D UNICODE /Gm- /EHsc /RTC1 /MDd /GS /Gy /fp:precise /Za /Zc:wchar_t /Zc:forScope /GR- /Fo"DEBUG\\" /Fd"C:\USERS\KYLE\DROPBOX\PROJECT\TEST\DEBUG\BWAPID.PDB" /Gd /TP /wd4480 /analyze- C:\USERS\KYLE\DROPBOX\PROJECT\TEST\BWAPI-LIB\SOURCE\PLAYERSET.CPP
^C:\USERS\KYLE\DROPBOX\PROJECT\TEST\BWAPI-LIB\SOURCE\PLAYERTYPE.CPP
/c /I../BWAPI_include /I../Util/Source /I../BWAPI/Source /Zi /nologo /W4 /WX- /Od /Oy- /D NOMINMAX /D WIN32 /D _DEBUG /D _UNICODE /D UNICODE /Gm- /EHsc /RTC1 /MDd /GS /Gy /fp:precise /Za /Zc:wchar_t /Zc:forScope /GR- /Fo"DEBUG\\" /Fd"C:\USERS\KYLE\DROPBOX\PROJECT\TEST\DEBUG\BWAPID.PDB" /Gd /TP /wd4480 /analyze- C:\USERS\KYLE\DROPBOX\PROJECT\TEST\BWAPI-LIB\SOURCE\PLAYERTYPE.CPP
^C:\USERS\KYLE\DROPBOX\PROJECT\TEST\BWAPI-LIB\SOURCE\POSITION.CPP
/c /I../BWAPI_include /I../Util/Source /I../BWAPI/Source /Zi /nologo /W4 /WX- /Od /Oy- /D NOMINMAX /D WIN32 /D _DEBUG /D _UNICODE /D UNICODE /Gm- /EHsc /RTC1 /MDd /GS /Gy /fp:precise /Za /Zc:wchar_t /Zc:forScope /GR- /Fo"DEBUG\\" /Fd"C:\USERS\KYLE\DROPBOX\PROJECT\TEST\DEBUG\BWAPID.PDB" /Gd /TP /wd4480 /analyze- C:\USERS\KYLE\DROPBOX\PROJECT\TEST\BWAPI-LIB\SOURCE\POSITION.CPP
^C:\USERS\KYLE\DROPBOX\PROJECT\TEST\BWAPI-LIB\SOURCE\POSITIONUNIT.CPP
/c /I../BWAPI_include /I../Util/Source /I../BWAPI/Source /Zi /nologo /W4 /WX- /Od /Oy- /D NOMINMAX /D WIN32 /D _DEBUG /D _UNICODE /D UNICODE /Gm- /EHsc /RTC1 /MDd /GS /Gy /fp:precise /Za /Zc:wchar_t /Zc:forScope /GR- /Fo"DEBUG\\" /Fd"C:\USERS\KYLE\DROPBOX\PROJECT\TEST\DEBUG\BWAPID.PDB" /Gd /TP /wd4480 /analyze- C:\USERS\KYLE\DROPBOX\PROJECT\TEST\BWAPI-LIB\SOURCE\POSITIONUNIT.CPP
^C:\USERS\KYLE\DROPBOX\PROJECT\TEST\BWAPI-LIB\SOURCE\RACE.CPP
/c /I../BWAPI_include /I../Util/Source /I../BWAPI/Source /Zi /nologo /W4 /WX- /Od /Oy- /D NOMINMAX /D WIN32 /D _DEBUG /D _UNICODE /D UNICODE /Gm- /EHsc /RTC1 /MDd /GS /Gy /fp:precise /Za /Zc:wchar_t /Zc:forScope /GR- /Fo"DEBUG\\" /Fd"C:\USERS\KYLE\DROPBOX\PROJECT\TEST\DEBUG\BWAPID.PDB" /Gd /TP /wd4480 /analyze- C:\USERS\KYLE\DROPBOX\PROJECT\TEST\BWAPI-LIB\SOURCE\RACE.CPP
^C:\USERS\KYLE\DROPBOX\PROJECT\TEST\BWAPI-LIB\SOURCE\REGION.CPP
/c /I../BWAPI_include /I../Util/Source /I../BWAPI/Source /Zi /nologo /W4 /WX- /Od /Oy- /D NOMINMAX /D WIN32 /D _DEBUG /D _UNICODE /D UNICODE /Gm- /EHsc /RTC1 /MDd /GS /Gy /fp:precise /Za /Zc:wchar_t /Zc:forScope /GR- /Fo"DEBUG\\" /Fd"C:\USERS\KYLE\DROPBOX\PROJECT\TEST\DEBUG\BWAPID.PDB" /Gd /TP /wd4480 /analyze- C:\USERS\KYLE\DROPBOX\PROJECT\TEST\BWAPI-LIB\SOURCE\REGION.CPP
^C:\USERS\KYLE\DROPBOX\PROJECT\TEST\BWAPI-LIB\SOURCE\REGIONSET.CPP
/c /I../BWAPI_include /I../Util/Source /I../BWAPI/Source /Zi /nologo /W4 /WX- /Od /Oy- /D NOMINMAX /D WIN32 /D _DEBUG /D _UNICODE /D UNICODE /Gm- /EHsc /RTC1 /MDd /GS /Gy /fp:precise /Za /Zc:wchar_t /Zc:forScope /GR- /Fo"DEBUG\\" /Fd"C:\USERS\KYLE\DROPBOX\PROJECT\TEST\DEBUG\BWAPID.PDB" /Gd /TP /wd4480 /analyze- C:\USERS\KYLE\DROPBOX\PROJECT\TEST\BWAPI-LIB\SOURCE\REGIONSET.CPP
^C:\USERS\KYLE\DROPBOX\PROJECT\TEST\BWAPI-LIB\SOURCE\TECHTYPE.CPP
/c /I../BWAPI_include /I../Util/Source /I../BWAPI/Source /Zi /nologo /W4 /WX- /Od /Oy- /D NOMINMAX /D WIN32 /D _DEBUG /D _UNICODE /D UNICODE /Gm- /EHsc /RTC1 /MDd /GS /Gy /fp:precise /Za /Zc:wchar_t /Zc:forScope /GR- /Fo"DEBUG\\" /Fd"C:\USERS\KYLE\DROPBOX\PROJECT\TEST\DEBUG\BWAPID.PDB" /Gd /TP /wd4480 /analyze- C:\USERS\KYLE\DROPBOX\PROJECT\TEST\BWAPI-LIB\SOURCE\TECHTYPE.CPP
^C:\USERS\KYLE\DROPBOX\PROJECT\TEST\BWAPI-LIB\SOURCE\UNIT.CPP
/c /I../BWAPI_include /I../Util/Source /I../BWAPI/Source /Zi /nologo /W4 /WX- /Od /Oy- /D NOMINMAX /D WIN32 /D _DEBUG /D _UNICODE /D UNICODE /Gm- /EHsc /RTC1 /MDd /GS /Gy /fp:precise /Za /Zc:wchar_t /Zc:forScope /GR- /Fo"DEBUG\\" /Fd"C:\USERS\KYLE\DROPBOX\PROJECT\TEST\DEBUG\BWAPID.PDB" /Gd /TP /wd4480 /analyze- C:\USERS\KYLE\DROPBOX\PROJECT\TEST\BWAPI-LIB\SOURCE\UNIT.CPP
^C:\USERS\KYLE\DROPBOX\PROJECT\TEST\BWAPI-LIB\SOURCE\UNITSET.CPP
/c /I../BWAPI_include /I../Util/Source /I../BWAPI/Source /Zi /nologo /W4 /WX- /Od /Oy- /D NOMINMAX /D WIN32 /D _DEBUG /D _UNICODE /D UNICODE /Gm- /EHsc /RTC1 /MDd /GS /Gy /fp:precise /Za /Zc:wchar_t /Zc:forScope /GR- /Fo"DEBUG\\" /Fd"C:\USERS\KYLE\DROPBOX\PROJECT\TEST\DEBUG\BWAPID.PDB" /Gd /TP /wd4480 /analyze- C:\USERS\KYLE\DROPBOX\PROJECT\TEST\BWAPI-LIB\SOURCE\UNITSET.CPP
^C:\USERS\KYLE\DROPBOX\PROJECT\TEST\BWAPI-LIB\UNITCOMMAND.CPP
/c /I../BWAPI_include /I../Util/Source /I../BWAPI/Source /Zi /nologo /W4 /WX- /Od /Oy- /D NOMINMAX /D WIN32 /D _DEBUG /D _UNICODE /D UNICODE /Gm- /EHsc /RTC1 /MDd /GS /Gy /fp:precise /Za /Zc:wchar_t /Zc:forScope /GR- /Fo"DEBUG\\" /Fd"C:\USERS\KYLE\DROPBOX\PROJECT\TEST\DEBUG\BWAPID.PDB" /Gd /TP /wd4480 /analyze- C:\USERS\KYLE\DROPBOX\PROJECT\TEST\BWAPI-LIB\UNITCOMMAND.CPP
^C:\USERS\KYLE\DROPBOX\PROJECT\TEST\BWAPI-LIB\SOURCE\UNITCOMMANDTYPE.CPP
/c /I../BWAPI_include /I../Util/Source /I../BWAPI/Source /Zi /nologo /W4 /WX- /Od /Oy- /D NOMINMAX /D WIN32 /D _DEBUG /D _UNICODE /D UNICODE /Gm- /EHsc /RTC1 /MDd /GS /Gy /fp:precise /Za /Zc:wchar_t /Zc:forScope /GR- /Fo"DEBUG\\" /Fd"C:\USERS\KYLE\DROPBOX\PROJECT\TEST\DEBUG\BWAPID.PDB" /Gd /TP /wd4480 /analyze- C:\USERS\KYLE\DROPBOX\PROJECT\TEST\BWAPI-LIB\SOURCE\UNITCOMMANDTYPE.CPP
^C:\USERS\KYLE\DROPBOX\PROJECT\TEST\BWAPI-LIB\SOURCE\UNITSIZETYPE.CPP
/c /I../BWAPI_include /I../Util/Source /I../BWAPI/Source /Zi /nologo /W4 /WX- /Od /Oy- /D NOMINMAX /D WIN32 /D _DEBUG /D _UNICODE /D UNICODE /Gm- /EHsc /RTC1 /MDd /GS /Gy /fp:precise /Za /Zc:wchar_t /Zc:forScope /GR- /Fo"DEBUG\\" /Fd"C:\USERS\KYLE\DROPBOX\PROJECT\TEST\DEBUG\BWAPID.PDB" /Gd /TP /wd4480 /analyze- C:\USERS\KYLE\DROPBOX\PROJECT\TEST\BWAPI-LIB\SOURCE\UNITSIZETYPE.CPP
^C:\USERS\KYLE\DROPBOX\PROJECT\TEST\BWAPI-LIB\SOURCE\UNITTYPE.CPP
/c /I../BWAPI_include /I../Util/Source /I../BWAPI/Source /Zi /nologo /W4 /WX- /Od /Oy- /D NOMINMAX /D WIN32 /D _DEBUG /D _UNICODE /D UNICODE /Gm- /EHsc /RTC1 /MDd /GS /Gy /fp:precise /Za /Zc:wchar_t /Zc:forScope /GR- /Fo"DEBUG\\" /Fd"C:\USERS\KYLE\DROPBOX\PROJECT\TEST\DEBUG\BWAPID.PDB" /Gd /TP /wd4480 /analyze- C:\USERS\KYLE\DROPBOX\PROJECT\TEST\BWAPI-LIB\SOURCE\UNITTYPE.CPP
^C:\USERS\KYLE\DROPBOX\PROJECT\TEST\BWAPI-LIB\SOURCE\UPGRADETYPE.CPP
/c /I../BWAPI_include /I../Util/Source /I../BWAPI/Source /Zi /nologo /W4 /WX- /Od /Oy- /D NOMINMAX /D WIN32 /D _DEBUG /D _UNICODE /D UNICODE /Gm- /EHsc /RTC1 /MDd /GS /Gy /fp:precise /Za /Zc:wchar_t /Zc:forScope /GR- /Fo"DEBUG\\" /Fd"C:\USERS\KYLE\DROPBOX\PROJECT\TEST\DEBUG\BWAPID.PDB" /Gd /TP /wd4480 /analyze- C:\USERS\KYLE\DROPBOX\PROJECT\TEST\BWAPI-LIB\SOURCE\UPGRADETYPE.CPP
^C:\USERS\KYLE\DROPBOX\PROJECT\TEST\BWAPI-LIB\SOURCE\WEAPONTYPE.CPP
/c /I../BWAPI_include /I../Util/Source /I../BWAPI/Source /Zi /nologo /W4 /WX- /Od /Oy- /D NOMINMAX /D WIN32 /D _DEBUG /D _UNICODE /D UNICODE /Gm- /EHsc /RTC1 /MDd /GS /Gy /fp:precise /Za /Zc:wchar_t /Zc:forScope /GR- /Fo"DEBUG\\" /Fd"C:\USERS\KYLE\DROPBOX\PROJECT\TEST\DEBUG\BWAPID.PDB" /Gd /TP /wd4480 /analyze- C:\USERS\KYLE\DROPBOX\PROJECT\TEST\BWAPI-LIB\SOURCE\WEAPONTYPE.CPP
