^C:\USERS\KYLE\DROPBOX\PROJECT\TEST\BWAPI-CLIENT\SOURCE\BULLETIMPL.CPP
/c /I../include /I../Shared /I../include/BWAPI/Client /Zi /nologo /W3 /WX- /Od /Oy- /D NOMINMAX /D WIN32 /D _DEBUG /D _LIB /D _UNICODE /D UNICODE /GF /Gm /EHsc /RTC1 /MDd /GS /fp:precise /Zc:wchar_t /Zc:forScope /Fo"DEBUG\\" /Fd"DEBUG\VC120.PDB" /Gd /TP /wd4996 /analyze- C:\USERS\KYLE\DROPBOX\PROJECT\TEST\BWAPI-CLIENT\SOURCE\BULLETIMPL.CPP
^C:\USERS\KYLE\DROPBOX\PROJECT\TEST\SHARED\BULLETSHARED.CPP
/c /I../include /I../Shared /I../include/BWAPI/Client /Zi /nologo /W3 /WX- /Od /Oy- /D NOMINMAX /D WIN32 /D _DEBUG /D _LIB /D _UNICODE /D UNICODE /GF /Gm /EHsc /RTC1 /MDd /GS /fp:precise /Zc:wchar_t /Zc:forScope /Fo"DEBUG\\" /Fd"DEBUG\VC120.PDB" /Gd /TP /wd4996 /analyze- C:\USERS\KYLE\DROPBOX\PROJECT\TEST\SHARED\BULLETSHARED.CPP
^C:\USERS\KYLE\DROPBOX\PROJECT\TEST\BWAPI-CLIENT\SOURCE\CLIENT.CPP
/c /I../include /I../Shared /I../include/BWAPI/Client /Zi /nologo /W3 /WX- /Od /Oy- /D NOMINMAX /D WIN32 /D _DEBUG /D _LIB /D _UNICODE /D UNICODE /GF /Gm /EHsc /RTC1 /MDd /GS /fp:precise /Zc:wchar_t /Zc:forScope /Fo"DEBUG\\" /Fd"DEBUG\VC120.PDB" /Gd /TP /wd4996 /analyze- C:\USERS\KYLE\DROPBOX\PROJECT\TEST\BWAPI-CLIENT\SOURCE\CLIENT.CPP
^C:\USERS\KYLE\DROPBOX\PROJECT\TEST\BWAPI-CLIENT\SOURCE\FORCEIMPL.CPP
/c /I../include /I../Shared /I../include/BWAPI/Client /Zi /nologo /W3 /WX- /Od /Oy- /D NOMINMAX /D WIN32 /D _DEBUG /D _LIB /D _UNICODE /D UNICODE /GF /Gm /EHsc /RTC1 /MDd /GS /fp:precise /Zc:wchar_t /Zc:forScope /Fo"DEBUG\\" /Fd"DEBUG\VC120.PDB" /Gd /TP /wd4996 /analyze- C:\USERS\KYLE\DROPBOX\PROJECT\TEST\BWAPI-CLIENT\SOURCE\FORCEIMPL.CPP
^C:\USERS\KYLE\DROPBOX\PROJECT\TEST\SHARED\FORCESHARED.CPP
/c /I../include /I../Shared /I../include/BWAPI/Client /Zi /nologo /W3 /WX- /Od /Oy- /D NOMINMAX /D WIN32 /D _DEBUG /D _LIB /D _UNICODE /D UNICODE /GF /Gm /EHsc /RTC1 /MDd /GS /fp:precise /Zc:wchar_t /Zc:forScope /Fo"DEBUG\\" /Fd"DEBUG\VC120.PDB" /Gd /TP /wd4996 /analyze- C:\USERS\KYLE\DROPBOX\PROJECT\TEST\SHARED\FORCESHARED.CPP
^C:\USERS\KYLE\DROPBOX\PROJECT\TEST\BWAPI-CLIENT\SOURCE\GAMEIMPL.CPP
/c /I../include /I../Shared /I../include/BWAPI/Client /Zi /nologo /W3 /WX- /Od /Oy- /D NOMINMAX /D WIN32 /D _DEBUG /D _LIB /D _UNICODE /D UNICODE /GF /Gm /EHsc /RTC1 /MDd /GS /fp:precise /Zc:wchar_t /Zc:forScope /Fo"DEBUG\\" /Fd"DEBUG\VC120.PDB" /Gd /TP /wd4996 /analyze- C:\USERS\KYLE\DROPBOX\PROJECT\TEST\BWAPI-CLIENT\SOURCE\GAMEIMPL.CPP
^C:\USERS\KYLE\DROPBOX\PROJECT\TEST\SHARED\GAMESHARED.CPP
/c /I../include /I../Shared /I../include/BWAPI/Client /Zi /nologo /W3 /WX- /Od /Oy- /D NOMINMAX /D WIN32 /D _DEBUG /D _LIB /D _UNICODE /D UNICODE /GF /Gm /EHsc /RTC1 /MDd /GS /fp:precise /Zc:wchar_t /Zc:forScope /Fo"DEBUG\\" /Fd"DEBUG\VC120.PDB" /Gd /TP /wd4996 /analyze- C:\USERS\KYLE\DROPBOX\PROJECT\TEST\SHARED\GAMESHARED.CPP
^C:\USERS\KYLE\DROPBOX\PROJECT\TEST\BWAPI-CLIENT\SOURCE\PLAYERIMPL.CPP
/c /I../include /I../Shared /I../include/BWAPI/Client /Zi /nologo /W3 /WX- /Od /Oy- /D NOMINMAX /D WIN32 /D _DEBUG /D _LIB /D _UNICODE /D UNICODE /GF /Gm /EHsc /RTC1 /MDd /GS /fp:precise /Zc:wchar_t /Zc:forScope /Fo"DEBUG\\" /Fd"DEBUG\VC120.PDB" /Gd /TP /wd4996 /analyze- C:\USERS\KYLE\DROPBOX\PROJECT\TEST\BWAPI-CLIENT\SOURCE\PLAYERIMPL.CPP
^C:\USERS\KYLE\DROPBOX\PROJECT\TEST\SHARED\PLAYERSHARED.CPP
/c /I../include /I../Shared /I../include/BWAPI/Client /Zi /nologo /W3 /WX- /Od /Oy- /D NOMINMAX /D WIN32 /D _DEBUG /D _LIB /D _UNICODE /D UNICODE /GF /Gm /EHsc /RTC1 /MDd /GS /fp:precise /Zc:wchar_t /Zc:forScope /Fo"DEBUG\\" /Fd"DEBUG\VC120.PDB" /Gd /TP /wd4996 /analyze- C:\USERS\KYLE\DROPBOX\PROJECT\TEST\SHARED\PLAYERSHARED.CPP
^C:\USERS\KYLE\DROPBOX\PROJECT\TEST\BWAPI-CLIENT\SOURCE\REGIONIMPL.CPP
/c /I../include /I../Shared /I../include/BWAPI/Client /Zi /nologo /W3 /WX- /Od /Oy- /D NOMINMAX /D WIN32 /D _DEBUG /D _LIB /D _UNICODE /D UNICODE /GF /Gm /EHsc /RTC1 /MDd /GS /fp:precise /Zc:wchar_t /Zc:forScope /Fo"DEBUG\\" /Fd"DEBUG\VC120.PDB" /Gd /TP /wd4996 /analyze- C:\USERS\KYLE\DROPBOX\PROJECT\TEST\BWAPI-CLIENT\SOURCE\REGIONIMPL.CPP
^C:\USERS\KYLE\DROPBOX\PROJECT\TEST\SHARED\REGIONSHARED.CPP
/c /I../include /I../Shared /I../include/BWAPI/Client /Zi /nologo /W3 /WX- /Od /Oy- /D NOMINMAX /D WIN32 /D _DEBUG /D _LIB /D _UNICODE /D UNICODE /GF /Gm /EHsc /RTC1 /MDd /GS /fp:precise /Zc:wchar_t /Zc:forScope /Fo"DEBUG\\" /Fd"DEBUG\VC120.PDB" /Gd /TP /wd4996 /analyze- C:\USERS\KYLE\DROPBOX\PROJECT\TEST\SHARED\REGIONSHARED.CPP
^C:\USERS\KYLE\DROPBOX\PROJECT\TEST\BWAPI-CLIENT\SOURCE\UNITIMPL.CPP
/c /I../include /I../Shared /I../include/BWAPI/Client /Zi /nologo /W3 /WX- /Od /Oy- /D NOMINMAX /D WIN32 /D _DEBUG /D _LIB /D _UNICODE /D UNICODE /GF /Gm /EHsc /RTC1 /MDd /GS /fp:precise /Zc:wchar_t /Zc:forScope /Fo"DEBUG\\" /Fd"DEBUG\VC120.PDB" /Gd /TP /wd4996 /analyze- C:\USERS\KYLE\DROPBOX\PROJECT\TEST\BWAPI-CLIENT\SOURCE\UNITIMPL.CPP
^C:\USERS\KYLE\DROPBOX\PROJECT\TEST\SHARED\UNITSHARED.CPP
/c /I../include /I../Shared /I../include/BWAPI/Client /Zi /nologo /W3 /WX- /Od /Oy- /D NOMINMAX /D WIN32 /D _DEBUG /D _LIB /D _UNICODE /D UNICODE /GF /Gm /EHsc /RTC1 /MDd /GS /fp:precise /Zc:wchar_t /Zc:forScope /Fo"DEBUG\\" /Fd"DEBUG\VC120.PDB" /Gd /TP /wd4996 /analyze- C:\USERS\KYLE\DROPBOX\PROJECT\TEST\SHARED\UNITSHARED.CPP
